{
  "$schema": "node_modules/ng-packagr/ng-package.schema.json",
  "dest": "dist",
  "whitelistedNonPeerDependencies": [
    "@universis/ngx-one-roster"
  ],
  "lib": {
    "entryFile": "src/public_api.ts"
  }
}